<svg width="16" height="16" viewBox="0 0 16 16" fill="none" xmlns="http://www.w3.org/2000/svg">
<path d="M2 8H14" stroke="white" stroke-width="2"/>
<path d="M8 2L14 8L8 14" stroke="white" stroke-width="2"/>
</svg>
