<svg width="1440" height="322" viewBox="0 0 1440 322" fill="none" xmlns="http://www.w3.org/2000/svg">
<path d="M-1440 114.969C-1390.05 114.969 -1276.17 206.704 -1095.36 115.909C-914.548 25.1131 -853.611 271.742 -989.969 317.676C-1047.37 337.013 -1094.25 230.801 -917.897 179.875C-741.542 128.948 -223.784 0.324777 -336.151 147.921C-457.025 306.692 218.272 -98.7226 88.4069 75.0264C-41.4578 248.775 286.201 294.814 402.08 165.948C517.959 37.0813 463.017 2.13168 360.124 123.956C257.231 245.78 557.918 -4.85823 719.749 134.94C881.581 274.738 1520.91 -128.679 1257.19 134.94C993.464 398.559 1762.66 -38.8091 1650.78 108.977C1538.9 256.764 1798.13 -5.82883 2160.25 134.94C2382.99 221.527 2398 358.617 2755.63 74.9161C3113.25 -208.785 2785.6 446.38 3257.11 167.283C3518.83 12.3616 2797.59 250.773 3600.75 134.94C4013.32 75.438 4086.24 -18.8381 3981.35 104.983C3907.67 191.966 3807.63 296.567 3931.41 228.305C4076.25 148.421 4200.12 114.969 4320 114.969" stroke="white" stroke-width="4"/>
</svg>
