<svg width="5760" height="322" viewBox="0 0 5760 322" fill="none" xmlns="http://www.w3.org/2000/svg">
<path d="M0 114.969C49.948 114.969 163.829 206.704 344.641 115.909C525.452 25.1131 586.389 271.742 450.031 317.676C392.626 337.013 345.748 230.801 522.103 179.875C698.458 128.948 1216.22 0.324777 1103.85 147.921C982.975 306.692 1658.27 -98.7226 1528.41 75.0264C1398.54 248.775 1726.2 294.814 1842.08 165.948C1957.96 37.0813 1903.02 2.13168 1800.12 123.956C1697.23 245.78 1997.92 -4.85823 2159.75 134.94C2321.58 274.738 2960.91 -128.679 2697.19 134.94C2433.46 398.559 3202.66 -38.8091 3090.78 108.977C2978.9 256.764 3238.13 -5.82883 3600.25 134.94C3822.99 221.527 3838 358.617 4195.63 74.9161C4553.25 -208.785 4225.6 446.38 4697.11 167.283C4958.83 12.3616 4237.59 250.773 5040.75 134.94C5453.32 75.438 5526.24 -18.8381 5421.35 104.983C5347.67 191.966 5247.63 296.567 5371.41 228.305C5516.25 148.421 5640.12 114.969 5760 114.969" stroke="white" stroke-width="4"/>
</svg>
